Capítulo 6 Analizando movimiento: el flujo de viajes urbanos | Analítica Urbana
…
Por ejemplo, el portal de datos abiertos de la Ciudad de Buenos Aires ofrece datasets con los trayectos realizados por los usuarios del sistema de bicicletas públicas, así como la ubicación de las estaciones.

Si no lo hemos hecho aún, carguemos las librerías que vamos a necesitar.

library(tidyverse)
library(ggmap)

Utilizaremos una porción de todos los trayectos disponibles, los que representan viajes en bicicletas públicas realizados durante el mes de abril de 2017:

viajes <- read_csv("https://bitsandbricks.github.io/data/viajes_BA_bici_abril_2017.csv")

viajes

## # A tibble: 113,650 x 6
##    HORA                ORIGEN_ESTACION NOMBRE_ORIGEN DESTINO_ESTACION
##    <dttm>                        <dbl> <chr>                    <dbl>
##  1 2017-04-01 00:00:00               1 FACULTAD DE …               42
##  2 2017-04-01 00:00:00               5 PLAZA ITALIA                14
##  3 2017-04-01 00:00:00               5 PLAZA ITALIA                20
##  4 2017-04-01 00:00:00               5 PLAZA ITALIA                69
##  5 2017-04-01 00:00:00               5 PLAZA ITALIA                94
##  6 2017-04-01 00:00:00               5 PLAZA ITALIA               123
##  7 2017-04-01 00:00:00               6 PARQUE LEZAMA               17
##  8 2017-04-01 00:00:00               6 PARQUE LEZAMA               28
##  9 2017-04-01 00:00:00               6 PARQUE LEZAMA              118
## 10 2017-04-01 00:00:00               8 CONGRESO                     1
## # … with 113,640 more rows, and 2 more variables: NOMBRE_DESTINO <chr>,
## #   TOTAL <dbl>

También descargamos un archivo de información geográfica con la posición de cada estación de bicicletas públicas:

estaciones <- read_csv("https://bitsandbricks.github.io/data/estaciones_BA_bici.csv")

estaciones

## # A tibble: 199 x 10
##        X     Y NOMBRE  DOMICILIO IMAGEN AUTOMAT OBSERV NRO_EST HORARIO DIRE_NORM
##    <dbl> <dbl> <chr>   <chr>     <chr>  <chr>   <chr>    <dbl> <chr>   <chr>    
##  1 -58.4 -34.6 FACULT… AV. PRES… ESTAC… AUTOMA… ABRIL…       1 ESTACI… FIGUEROA…
##  2 -58.4 -34.6 RETIRO  AV. DR.J… ESTAC… AUTOMA… ABRIL…       2 ESTACI… DEL LIBE…
##  3 -58.4 -34.6 ADUANA  AV. ING.… ESTAC… AUTOMA… ABRIL…       3 ESTACI… HUERGO, …
##  4 -58.4 -34.6 PLAZA … LAVALLE … ESTAC… AUTOMA… ABRIL…       4 ESTACI… LAVALLE …
##  5 -58.4 -34.6 PARQUE… AV MARTI… ESTAC… AUTOMA… ABRIL…       6 ESTACI… GARCIA, …
##  6 -58.4 -34.6 PLAZA … AV. SANT… ESTAC… AUTOMA… ABRIL…       5 ESTACI… SARMIENT…
##  7 -58.4 -34.6 OBELIS… AV. 9 DE… ESTAC… AUTOMA… ABRIL…       7 ESTACI… PELLEGRI…
##  8 -58.4 -34.6 CONGRE… AV. HIPO… ESTAC… AUTOMA… ABRIL…       8 ESTACI… YRIGOYEN…
##  9 -58.4 -34.6 PARQUE… PARQUE L… ESTAC… AUTOMA… ABRIL…       9 ESTACI… DIAZ, CN…
## 10 -58.4 -34.6 PUERTO… MOREAU D… ESTAC… AUTOMA… ABRIL…      10 ESTACI… 1500 MOR…
## # … with 189 more rows
…
